{
  "$schema": "http://json-schema.org/draft-07/schema#",
  "description": "JSON metadata for Plasma Applets or Containments",
  "additionalProperties": false,
  "allOf": [
    {
      "$ref": "kpluginmetadata.schema.json"
    },
    {
      "$ref": "extrakeys.applets.schema.json"
    },
    {
      "type": "object",
      "properties": {
        "KPlugin": {
          "type": "object",
          "required": [
            "Id",
            "Name",
            "Description",
            "Category"
          ]
        }
      },
      "required": [
        "KPackageStructure"
      ]
    }
  ]
}
